{
    "message": "user list",
    "data": {
        "current_page": 1,
        "data": [
            {
                "id": 1,
                "user_name": "Esmeralda Leuschke",
                "email": "wkutch@example.com",
                "phone_no": "571.860.3060",
                "address": "76128 Gulgowski Road Apt. 472",
                "created_at": "2022-09-30T09:10:43.000000Z"
            },
            {
                "id": 2,
                "user_name": "Yessenia Monahan",
                "email": "ujaskolski@example.net",
                "phone_no": "+18543134315",
                "address": "94331 Viviane Summit Suite 321",
                "created_at": "2022-09-30T09:10:43.000000Z"
            },
            {
                "id": 3,
                "user_name": "Kayli Wuckert",
                "email": "batz.tianna@example.net",
                "phone_no": "(989) 237-3621",
                "address": "49498 Wilkinson Lodge Apt. 575",
                "created_at": "2022-09-30T09:10:43.000000Z"
            },
            {
                "id": 4,
                "user_name": "Dr. Fae Turner",
                "email": "vbradtke@example.org",
                "phone_no": "+1-801-941-3048",
                "address": "81882 Ratke Point Suite 839",
                "created_at": "2022-09-30T09:10:43.000000Z"
            },
            {
                "id": 5,
                "user_name": "Mr. Frank Hoppe",
                "email": "angie62@example.com",
                "phone_no": "(252) 284-7036",
                "address": "10180 Turcotte Haven Apt. 023",
                "created_at": "2022-09-30T09:10:43.000000Z"
            },
            {
                "id": 6,
                "user_name": "Magnolia Hane",
                "email": "antwon.schaefer@example.net",
                "phone_no": "(989) 793-9685",
                "address": "86181 Norene Roads Apt. 207",
                "created_at": "2022-09-30T09:10:43.000000Z"
            },
            {
                "id": 7,
                "user_name": "Kyla Rohan",
                "email": "coy49@example.org",
                "phone_no": "681-877-1617",
                "address": "957 Simonis Flats Suite 184",
                "created_at": "2022-09-30T09:10:43.000000Z"
            },
            {
                "id": 8,
                "user_name": "Dr. Efrain Pfeffer Sr.",
                "email": "mccullough.lionel@example.net",
                "phone_no": "(925) 516-8375",
                "address": "5122 Arne Plains Suite 257",
                "created_at": "2022-09-30T09:10:43.000000Z"
            },
            {
                "id": 9,
                "user_name": "Haylie Walter",
                "email": "stamm.celia@example.org",
                "phone_no": "(726) 907-2717",
                "address": "3515 Lueilwitz Coves",
                "created_at": "2022-09-30T09:10:43.000000Z"
            },
            {
                "id": 10,
                "user_name": "Easton Bernier",
                "email": "xwuckert@example.net",
                "phone_no": "207.943.2701",
                "address": "582 Prohaska Heights",
                "created_at": "2022-09-30T09:10:43.000000Z"
            },
            {
                "id": 11,
                "user_name": "Prof. Granville Simonis Jr.",
                "email": "ida72@example.org",
                "phone_no": "+18174989339",
                "address": "485 Werner Mills Suite 025",
                "created_at": "2022-09-30T09:10:43.000000Z"
            },
            {
                "id": 12,
                "user_name": "Prof. Justice Dietrich",
                "email": "nroob@example.org",
                "phone_no": "(903) 255-0479",
                "address": "87623 Dusty Crossing Apt. 735",
                "created_at": "2022-09-30T09:10:43.000000Z"
            },
            {
                "id": 13,
                "user_name": "Dr. Lily Lesch PhD",
                "email": "zelda80@example.org",
                "phone_no": "1-443-493-7756",
                "address": "899 Turner Flat Apt. 446",
                "created_at": "2022-09-30T09:10:43.000000Z"
            },
            {
                "id": 14,
                "user_name": "Kylee Schiller",
                "email": "ccarter@example.net",
                "phone_no": "1-838-760-8450",
                "address": "7824 Gibson Street",
                "created_at": "2022-09-30T09:10:43.000000Z"
            },
            {
                "id": 15,
                "user_name": "Andreanne Spencer V",
                "email": "xcollier@example.org",
                "phone_no": "760-682-3365",
                "address": "70142 Clementina Summit Apt. 733",
                "created_at": "2022-09-30T09:10:43.000000Z"
            },
            {
                "id": 16,
                "user_name": "Mr. Rene Hauck DVM",
                "email": "ichamplin@example.net",
                "phone_no": "(325) 638-4365",
                "address": "87805 Shyanne Landing Apt. 822",
                "created_at": "2022-09-30T09:10:43.000000Z"
            },
            {
                "id": 17,
                "user_name": "Creola Hayes",
                "email": "taya.watsica@example.net",
                "phone_no": "304-723-4648",
                "address": "6233 Alf Road",
                "created_at": "2022-09-30T09:10:43.000000Z"
            },
            {
                "id": 18,
                "user_name": "Okey Boyer MD",
                "email": "morissette.anita@example.net",
                "phone_no": "1-423-661-3230",
                "address": "397 Ashlynn Loop Apt. 208",
                "created_at": "2022-09-30T09:10:43.000000Z"
            },
            {
                "id": 19,
                "user_name": "Rollin Fay",
                "email": "adela93@example.org",
                "phone_no": "(469) 705-0264",
                "address": "22719 Ottis Mountain",
                "created_at": "2022-09-30T09:10:43.000000Z"
            },
            {
                "id": 20,
                "user_name": "Abbie Leuschke",
                "email": "wmcglynn@example.com",
                "phone_no": "+1-870-869-0582",
                "address": "4962 Rusty Junctions Suite 056",
                "created_at": "2022-09-30T09:10:43.000000Z"
            },
            {
                "id": 21,
                "user_name": "Israel Rogahn",
                "email": "streich.robbie@example.org",
                "phone_no": "+1.848.333.3033",
                "address": "505 Roberts Expressway Suite 287",
                "created_at": "2022-09-30T09:10:43.000000Z"
            },
            {
                "id": 22,
                "user_name": "Christa Harvey",
                "email": "blarson@example.net",
                "phone_no": "+1-860-652-0890",
                "address": "3702 Brenna Street",
                "created_at": "2022-09-30T09:10:43.000000Z"
            },
            {
                "id": 23,
                "user_name": "Harmony Kunze",
                "email": "jada.mcdermott@example.com",
                "phone_no": "+1 (540) 799-0866",
                "address": "746 Geovanny Highway Apt. 778",
                "created_at": "2022-09-30T09:10:43.000000Z"
            },
            {
                "id": 24,
                "user_name": "Sebastian Hermiston",
                "email": "geovanny52@example.com",
                "phone_no": "+16087062079",
                "address": "887 Newell Creek",
                "created_at": "2022-09-30T09:10:43.000000Z"
            },
            {
                "id": 25,
                "user_name": "Prof. Joshua Keeling",
                "email": "adele75@example.org",
                "phone_no": "(934) 385-3801",
                "address": "6499 Edmond Ports Apt. 682",
                "created_at": "2022-09-30T09:10:43.000000Z"
            },
            {
                "id": 26,
                "user_name": "Mrs. Penelope Runte",
                "email": "modesto67@example.org",
                "phone_no": "+1 (763) 447-9165",
                "address": "8983 Santiago Port",
                "created_at": "2022-09-30T09:10:43.000000Z"
            },
            {
                "id": 27,
                "user_name": "Dr. Louisa Paucek",
                "email": "caleb.gorczany@example.org",
                "phone_no": "+1-606-313-5556",
                "address": "18297 Lorna Forge Suite 244",
                "created_at": "2022-09-30T09:10:43.000000Z"
            },
            {
                "id": 28,
                "user_name": "Prof. Hilda Renner II",
                "email": "hjast@example.org",
                "phone_no": "+1 (984) 609-9841",
                "address": "264 Lueilwitz Way",
                "created_at": "2022-09-30T09:10:43.000000Z"
            },
            {
                "id": 29,
                "user_name": "Dorian Murazik",
                "email": "brannon.schinner@example.org",
                "phone_no": "339.487.1330",
                "address": "4792 Rosanna Circles",
                "created_at": "2022-09-30T09:10:43.000000Z"
            },
            {
                "id": 30,
                "user_name": "Trenton Roberts",
                "email": "pouros.hester@example.net",
                "phone_no": "(575) 788-8906",
                "address": "9783 Guido Flat Suite 736",
                "created_at": "2022-09-30T09:10:43.000000Z"
            }
        ],
        "first_page_url": "/?page=1",
        "from": 1,
        "last_page": 4,
        "last_page_url": "/?page=4",
        "links": [
            {
                "url": null,
                "label": "Previous",
                "active": false
            },
            {
                "url": "/?page=1",
                "label": "1",
                "active": true
            },
            {
                "url": "/?page=2",
                "label": "2",
                "active": false
            },
            {
                "url": "/?page=3",
                "label": "3",
                "active": false
            },
            {
                "url": "/?page=4",
                "label": "4",
                "active": false
            },
            {
                "url": "/?page=2",
                "label": "Next",
                "active": false
            }
        ],
        "next_page_url": "/?page=2",
        "path": "/",
        "per_page": 30,
        "prev_page_url": null,
        "to": 30,
        "total": 110
    }
}